<?xml version="1.0" encoding="UTF-8"?>
<svg width="2378px" height="665px" viewBox="0 0 2378 665" version="1.1" xmlns="http://www.w3.org/2000/svg" xmlns:xlink="http://www.w3.org/1999/xlink">
    <title>Group 21 Copy</title>
    <g id="Page-1" stroke="none" stroke-width="1" fill="none" fill-rule="evenodd">
        <g id="Group-21-Copy" transform="translate(0.500000, 0.415452)" fill="#FFFFFF" fill-rule="nonzero">
            <path d="M1409.04451,189.739742 C1395.23701,189.739742 1384.04451,178.547242 1384.04451,164.739742 C1384.04451,150.932242 1395.23701,139.739742 1409.04451,139.739742 C1422.85201,139.739742 1434.04451,150.932242 1434.04451,164.739742 C1434.04451,178.547242 1422.85201,189.739742 1409.04451,189.739742 Z M1409.04451,184.739742 C1420.09021,184.739742 1429.04451,175.785437 1429.04451,164.739742 C1429.04451,153.694047 1420.09021,144.739742 1409.04451,144.739742 C1397.99882,144.739742 1389.04451,153.694047 1389.04451,164.739742 C1389.04451,175.785437 1397.99882,184.739742 1409.04451,184.739742 Z M1409.04451,161.204742 L1416.11451,154.132242 L1419.65201,157.669742 L1412.57951,164.739742 L1419.65201,171.809742 L1416.11451,175.347242 L1409.04451,168.274742 L1401.97451,175.347242 L1398.43701,171.809742 L1405.50951,164.739742 L1398.43701,157.669742 L1401.97451,154.132242 L1409.04451,161.204742 Z" id="Shape" opacity="0.049999997"></path>
            <path d="M1694,142.584548 C1658.37665,142.584548 1629.5,113.707898 1629.5,78.0845481 C1629.5,42.4611981 1658.37665,13.5845481 1694,13.5845481 C1729.62335,13.5845481 1758.5,42.4611981 1758.5,78.0845481 C1758.5,113.707898 1729.62335,142.584548 1694,142.584548 Z M1694,129.584548 C1722.44266,129.584548 1745.5,106.527213 1745.5,78.0845481 C1745.5,49.6418835 1722.44266,26.5845481 1694,26.5845481 C1665.55734,26.5845481 1642.5,49.6418835 1642.5,78.0845481 C1642.5,106.527213 1665.55734,129.584548 1694,129.584548 Z M1694,68.9200419 L1712.32901,50.5845481 L1721.5,59.7555356 L1703.16451,78.0845481 L1721.5,96.4135606 L1712.32901,105.584548 L1694,87.2490543 L1675.67099,105.584548 L1666.5,96.4135606 L1684.83549,78.0845481 L1666.5,59.7555356 L1675.67099,50.5845481 L1694,68.9200419 Z" id="Shape" opacity="0.049999997" transform="translate(1694.000000, 78.084548) rotate(-13.000000) translate(-1694.000000, -78.084548) "></path>
            <path d="M2299,237.584548 C2263.37665,237.584548 2234.5,208.707898 2234.5,173.084548 C2234.5,137.461198 2263.37665,108.584548 2299,108.584548 C2334.62335,108.584548 2363.5,137.461198 2363.5,173.084548 C2363.5,208.707898 2334.62335,237.584548 2299,237.584548 Z M2299,224.584548 C2327.44266,224.584548 2350.5,201.527213 2350.5,173.084548 C2350.5,144.641883 2327.44266,121.584548 2299,121.584548 C2270.55734,121.584548 2247.5,144.641883 2247.5,173.084548 C2247.5,201.527213 2270.55734,224.584548 2299,224.584548 Z M2299,163.920042 L2317.32901,145.584548 L2326.5,154.755536 L2308.16451,173.084548 L2326.5,191.413561 L2317.32901,200.584548 L2299,182.249054 L2280.67099,200.584548 L2271.5,191.413561 L2289.83549,173.084548 L2271.5,154.755536 L2280.67099,145.584548 L2299,163.920042 Z" id="Shape-Copy-13" opacity="0.03" transform="translate(2299.000000, 173.084548) rotate(-13.000000) translate(-2299.000000, -173.084548) "></path>
            <path d="M1667.51683,625.353455 C1561.19908,625.353455 1475.01683,539.171205 1475.01683,432.853455 C1475.01683,326.535705 1561.19908,240.353455 1667.51683,240.353455 C1773.83458,240.353455 1860.01683,326.535705 1860.01683,432.853455 C1860.01683,539.171205 1773.83458,625.353455 1667.51683,625.353455 Z M1667.14212,587.453115 C1752.19397,587.453115 1821.14212,518.504967 1821.14212,433.453115 C1821.14212,348.401264 1752.19397,279.453115 1667.14212,279.453115 C1582.09027,279.453115 1513.14212,348.401264 1513.14212,433.453115 C1513.14212,518.504967 1582.09027,587.453115 1667.14212,587.453115 Z M1667.51683,405.693191 L1721.83736,351.353455 L1749.01683,378.532927 L1694.67709,432.853455 L1749.01683,487.173982 L1721.83736,514.353455 L1667.51683,460.013718 L1613.1963,514.353455 L1586.01683,487.173982 L1640.35657,432.853455 L1586.01683,378.532927 L1613.1963,351.353455 L1667.51683,405.693191 Z" id="Shape-Copy" opacity="0.03" transform="translate(1667.516829, 432.853455) rotate(13.000000) translate(-1667.516829, -432.853455) "></path>
            <path d="M517,142 C481.37665,142 452.5,113.12335 452.5,77.5 C452.5,41.87665 481.37665,13 517,13 C552.62335,13 581.5,41.87665 581.5,77.5 C581.5,113.12335 552.62335,142 517,142 Z M517,129.1 C545.497893,129.1 568.6,105.997893 568.6,77.5 C568.6,49.0021069 545.497893,25.9 517,25.9 C488.502107,25.9 465.4,49.0021069 465.4,77.5 C465.4,105.997893 488.502107,129.1 517,129.1 Z M517,68.3797 L535.2406,50.13265 L544.36735,59.2594 L526.1203,77.5 L544.36735,95.7406 L535.2406,104.86735 L517,86.6203 L498.7594,104.86735 L489.63265,95.7406 L507.8797,77.5 L489.63265,59.2594 L498.7594,50.13265 L517,68.3797 Z" id="Shape" opacity="0.049999997" transform="translate(517.000000, 77.500000) rotate(7.000000) translate(-517.000000, -77.500000) "></path>
            <path d="M700,122 C694.20085,122 689.5,117.29915 689.5,111.5 C689.5,105.70085 694.20085,101 700,101 C705.79915,101 710.5,105.70085 710.5,111.5 C710.5,117.29915 705.79915,122 700,122 Z M700,120 C704.69442,120 708.5,116.19442 708.5,111.5 C708.5,106.80558 704.69442,103 700,103 C695.30558,103 691.5,106.80558 691.5,111.5 C691.5,116.19442 695.30558,120 700,120 Z M700,110.000354 L702.999293,107 L704.5,108.500707 L701.499646,111.5 L704.5,114.499293 L702.999293,116 L700,112.999646 L697.000707,116 L695.5,114.499293 L698.500354,111.5 L695.5,108.500707 L697.000707,107 L700,110.000354 Z" id="Shape-Copy-4" opacity="0.049999997"></path>
            <path d="M796,420 C790.20085,420 785.5,415.29915 785.5,409.5 C785.5,403.70085 790.20085,399 796,399 C801.79915,399 806.5,403.70085 806.5,409.5 C806.5,415.29915 801.79915,420 796,420 Z M796,418 C800.69442,418 804.5,414.19442 804.5,409.5 C804.5,404.80558 800.69442,401 796,401 C791.30558,401 787.5,404.80558 787.5,409.5 C787.5,414.19442 791.30558,418 796,418 Z M796,408.000354 L798.999293,405 L800.5,406.500707 L797.499646,409.5 L800.5,412.499293 L798.999293,414 L796,410.999646 L793.000707,414 L791.5,412.499293 L794.500354,409.5 L791.5,406.500707 L793.000707,405 L796,408.000354 Z" id="Shape-Copy-6" opacity="0.049999997"></path>
            <path d="M700,441 C694.20085,441 689.5,436.29915 689.5,430.5 C689.5,424.70085 694.20085,420 700,420 C705.79915,420 710.5,424.70085 710.5,430.5 C710.5,436.29915 705.79915,441 700,441 Z M700,439 C704.69442,439 708.5,435.19442 708.5,430.5 C708.5,425.80558 704.69442,422 700,422 C695.30558,422 691.5,425.80558 691.5,430.5 C691.5,435.19442 695.30558,439 700,439 Z M700,429.000354 L702.999293,426 L704.5,427.500707 L701.499646,430.5 L704.5,433.499293 L702.999293,435 L700,431.999646 L697.000707,435 L695.5,433.499293 L698.500354,430.5 L695.5,427.500707 L697.000707,426 L700,429.000354 Z" id="Shape-Copy-8" opacity="0.049999997"></path>
            <path d="M518,419.584548 C491.21345,419.584548 469.5,397.871098 469.5,371.084548 C469.5,344.297998 491.21345,322.584548 518,322.584548 C544.78655,322.584548 566.5,344.297998 566.5,371.084548 C566.5,397.871098 544.78655,419.584548 518,419.584548 Z M518,410.584548 C539.815248,410.584548 557.5,392.899796 557.5,371.084548 C557.5,349.2693 539.815248,331.584548 518,331.584548 C496.184752,331.584548 478.5,349.2693 478.5,371.084548 C478.5,392.899796 496.184752,410.584548 518,410.584548 Z M517.5,364.586198 L531.4967,350.584548 L538.5,357.587848 L524.49835,371.584548 L538.5,385.581249 L531.4967,392.584548 L517.5,378.582898 L503.5033,392.584548 L496.5,385.581249 L510.50165,371.584548 L496.5,357.587848 L503.5033,350.584548 L517.5,364.586198 Z" id="Shape-Copy-11" opacity="0.03" transform="translate(518.000000, 371.084548) rotate(-13.000000) translate(-518.000000, -371.084548) "></path>
            <path d="M242.857513,243.582161 C229.050013,243.582161 217.857513,232.389661 217.857513,218.582161 C217.857513,204.774661 229.050013,193.582161 242.857513,193.582161 C256.665013,193.582161 267.857513,204.774661 267.857513,218.582161 C267.857513,232.389661 256.665013,243.582161 242.857513,243.582161 Z M242.857513,238.582161 C253.903208,238.582161 262.857513,229.627856 262.857513,218.582161 C262.857513,207.536466 253.903208,198.582161 242.857513,198.582161 C231.811818,198.582161 222.857513,207.536466 222.857513,218.582161 C222.857513,229.627856 231.811818,238.582161 242.857513,238.582161 Z M242.857513,215.047161 L249.927513,207.974661 L253.465013,211.512161 L246.392513,218.582161 L253.465013,225.652161 L249.927513,229.189661 L242.857513,222.117161 L235.787513,229.189661 L232.250013,225.652161 L239.322513,218.582161 L232.250013,211.512161 L235.787513,207.974661 L242.857513,215.047161 Z" id="Shape" opacity="0.049999997"></path>
            <path d="M382.5,227.584548 C361.5126,227.584548 344.5,210.571948 344.5,189.584548 C344.5,168.597148 361.5126,151.584548 382.5,151.584548 C403.4874,151.584548 420.5,168.597148 420.5,189.584548 C420.5,210.571948 403.4874,227.584548 382.5,227.584548 Z M383,219.584548 C399.844685,219.584548 413.5,205.929233 413.5,189.084548 C413.5,172.239863 399.844685,158.584548 383,158.584548 C366.155315,158.584548 352.5,172.239863 352.5,189.084548 C352.5,205.929233 366.155315,219.584548 383,219.584548 Z M382.5,184.252472 L393.164153,173.584548 L398.5,178.920395 L387.832076,189.584548 L398.5,200.248701 L393.164153,205.584548 L382.5,194.916624 L371.835847,205.584548 L366.5,200.248701 L377.167924,189.584548 L366.5,178.920395 L371.835847,173.584548 L382.5,184.252472 Z" id="Shape-Copy-9" opacity="0.049999997"></path>
            <path d="M1905.8415,211.276856 L1855.5,250.584548 L1855.5,42.8153173 C1855.5,36.6127348 1860.55918,31.5845481 1866.8,31.5845481 L2070.2,31.5845481 C2076.44082,31.5845481 2081.5,36.6127348 2081.5,42.8153173 L2081.5,200.046087 C2081.5,206.248669 2076.44082,211.276856 2070.2,211.276856 L1905.8415,211.276856 Z M1897.44394,188.063442 L2058.5,188.063442 L2058.5,53.5845481 L1877.5,53.5845481 L1877.5,203.584548 L1897.44394,188.063442 Z M1960.50545,133.977845 L2008.50419,86.5845481 L2024.5,102.382314 L1960.50545,165.584548 L1916.5,122.123934 L1932.50712,106.326169 L1960.50545,133.977845 Z" id="Shape" opacity="0.049999997" transform="translate(1968.500000, 141.084548) rotate(-19.000000) translate(-1968.500000, -141.084548) "></path>
            <path d="M1243.9645,128.12301 L1235.5,134.584548 L1235.5,100.430702 C1235.5,99.4110993 1236.35066,98.5845481 1237.4,98.5845481 L1271.6,98.5845481 C1272.64934,98.5845481 1273.5,99.4110993 1273.5,100.430702 L1273.5,126.276856 C1273.5,127.296458 1272.64934,128.12301 1271.6,128.12301 L1243.9645,128.12301 Z M1242.80562,123.997697 L1269.5,123.997697 L1269.5,101.584548 L1239.5,101.584548 L1239.5,126.584548 L1242.80562,123.997697 Z M1252.83424,115.383445 L1260.83403,107.584548 L1263.5,110.18418 L1252.83424,120.584548 L1245.5,113.432802 L1248.16785,110.833169 L1252.83424,115.383445 Z" id="Shape-Copy-2" opacity="0.049999997" transform="translate(1254.500000, 116.584548) rotate(11.000000) translate(-1254.500000, -116.584548) "></path>
            <path d="M736.9645,444.12301 L728.5,450.584548 L728.5,416.430702 C728.5,415.411099 729.350659,414.584548 730.4,414.584548 L764.6,414.584548 C765.649341,414.584548 766.5,415.411099 766.5,416.430702 L766.5,442.276856 C766.5,443.296458 765.649341,444.12301 764.6,444.12301 L736.9645,444.12301 Z M735.805625,439.997697 L762.5,439.997697 L762.5,417.584548 L732.5,417.584548 L732.5,442.584548 L735.805625,439.997697 Z M745.834241,431.383445 L753.834032,423.584548 L756.5,426.18418 L745.834241,436.584548 L738.5,429.432802 L741.167854,426.833169 L745.834241,431.383445 Z" id="Shape-Copy-3" opacity="0.049999997"></path>
            <path d="M696.95975,179.738394 L690.5,184.584548 L690.5,158.969163 C690.5,158.204462 691.149187,157.584548 691.95,157.584548 L718.05,157.584548 C718.850813,157.584548 719.5,158.204462 719.5,158.969163 L719.5,178.353779 C719.5,179.118481 718.850813,179.738394 718.05,179.738394 L696.95975,179.738394 Z M696.034313,176.618541 L716.5,176.618541 L716.5,159.584548 L693.5,159.584548 L693.5,178.584548 L696.034313,176.618541 Z M702.796952,169.983784 L708.574578,164.584548 L710.5,166.384294 L702.796952,173.584548 L697.5,168.633339 L699.426783,166.833593 L702.796952,169.983784 Z" id="Shape-Copy-7" opacity="0.049999997" transform="translate(705.000000, 171.084548) rotate(4.000000) translate(-705.000000, -171.084548) "></path>
            <path d="M1999.25193,346.424936 L1984.32768,358.091603 L1984.32768,296.424936 C1984.32768,294.583987 1985.82753,293.091603 1987.67768,293.091603 L2047.97768,293.091603 C2049.82784,293.091603 2051.32768,294.583987 2051.32768,296.424936 L2051.32768,343.091603 C2051.32768,344.932552 2049.82784,346.424936 2047.97768,346.424936 L1999.25193,346.424936 Z M1996.93373,339.75827 L2044.62768,339.75827 L2044.62768,299.75827 L1991.02768,299.75827 L1991.02768,344.374936 L1996.93373,339.75827 Z M2015.45923,323.494936 L2029.67328,309.354936 L2034.41018,314.06827 L2015.45923,332.924936 L2002.42773,319.95827 L2007.16798,315.244936 L2015.45923,323.494936 Z" id="Shape" opacity="0.049999997"></path>
            <path d="M627.65177,121.129493 L615.62327,130.462827 L615.62327,81.1294934 C615.62327,79.6567341 616.832101,78.4628267 618.32327,78.4628267 L666.92327,78.4628267 C668.414439,78.4628267 669.62327,79.6567341 669.62327,81.1294934 L669.62327,118.462827 C669.62327,119.935586 668.414439,121.129493 666.92327,121.129493 L627.65177,121.129493 Z M625.78337,115.79616 L664.22327,115.79616 L664.22327,83.7961601 L621.02327,83.7961601 L621.02327,119.489493 L625.78337,115.79616 Z M640.71437,102.785493 L652.17047,91.4734934 L655.98827,95.2441601 L640.71437,110.329493 L630.21137,99.9561601 L634.03187,96.1854934 L640.71437,102.785493 Z" id="Shape" opacity="0.049999997"></path>
            <path d="M2178.12235,438.164491 L2137.58185,469.933722 L2137.58185,302.010645 C2137.58185,296.997599 2141.65606,292.933722 2146.68185,292.933722 L2310.48185,292.933722 C2315.50764,292.933722 2319.58185,296.997599 2319.58185,302.010645 L2319.58185,429.087568 C2319.58185,434.100614 2315.50764,438.164491 2310.48185,438.164491 L2178.12235,438.164491 Z M2171.82515,420.010645 L2301.38185,420.010645 L2301.38185,311.087568 L2155.78185,311.087568 L2155.78185,432.582183 L2171.82515,420.010645 Z M2222.14815,375.724337 L2260.75945,337.220029 L2273.62685,350.054799 L2222.14815,401.402953 L2186.74915,366.093722 L2199.62565,353.258953 L2222.14815,375.724337 Z" id="Shape" opacity="0.049999997"></path>
            <path d="M527.489487,258.235423 L505.214487,275.645679 L505.214487,183.620038 C505.214487,180.872776 507.453064,178.645679 510.214487,178.645679 L600.214487,178.645679 C602.975911,178.645679 605.214487,180.872776 605.214487,183.620038 L605.214487,253.261064 C605.214487,256.008326 602.975911,258.235423 600.214487,258.235423 L527.489487,258.235423 Z M524.029487,248.286705 L595.214487,248.286705 L595.214487,188.594397 L515.214487,188.594397 L515.214487,255.176192 L524.029487,248.286705 Z M551.679487,224.016807 L572.894487,202.915577 L579.964487,209.94932 L551.679487,238.089269 L532.229487,218.739013 L539.304487,211.705269 L551.679487,224.016807 Z" id="Shape" opacity="0.049999997" transform="translate(555.214487, 227.145679) rotate(-19.000000) translate(-555.214487, -227.145679) "></path>
            <path d="M663.08775,360.994805 L649.5,371.584548 L649.5,315.610189 C649.5,313.939174 650.865532,312.584548 652.55,312.584548 L707.45,312.584548 C709.134468,312.584548 710.5,313.939174 710.5,315.610189 L710.5,357.969163 C710.5,359.640179 709.134468,360.994805 707.45,360.994805 L663.08775,360.994805 Z M660.899188,354.445587 L704.5,354.445587 L704.5,318.584548 L655.5,318.584548 L655.5,358.584548 L660.899188,354.445587 Z M677.316277,340.182766 L690.204829,327.584548 L694.5,331.783954 L677.316277,348.584548 L665.5,337.031727 L669.798209,332.832321 L677.316277,340.182766 Z" id="Shape-Copy-10" opacity="0.049999997" transform="translate(680.000000, 342.084548) rotate(-4.000000) translate(-680.000000, -342.084548) "></path>
            <path d="M204.008259,537.722324 L133.619259,592.824888 L133.619259,301.568478 C133.619259,292.873533 140.69316,285.824888 149.419259,285.824888 L433.819259,285.824888 C442.545358,285.824888 449.619259,292.873533 449.619259,301.568478 L449.619259,521.978734 C449.619259,530.673679 442.545358,537.722324 433.819259,537.722324 L204.008259,537.722324 Z M193.074659,506.235144 L418.019259,506.235144 L418.019259,317.312067 L165.219259,317.312067 L165.219259,528.040016 L193.074659,506.235144 Z M280.448659,429.42217 L347.488059,362.637862 L369.829259,384.899298 L280.448659,473.960785 L218.986659,412.718221 L241.343659,390.456785 L280.448659,429.42217 Z" id="Shape" opacity="0.04" transform="translate(291.619259, 439.324888) rotate(-5.000000) translate(-291.619259, -439.324888) "></path>
            <path d="M30.2032266,227.397429 L0.577476608,250.551275 L0.577476608,128.166659 C0.577476608,124.513083 3.55478302,121.551275 7.22747661,121.551275 L126.927477,121.551275 C130.60017,121.551275 133.577477,124.513083 133.577477,128.166659 L133.577477,220.782044 C133.577477,224.43562 130.60017,227.397429 126.927477,227.397429 L30.2032266,227.397429 Z M25.6014266,214.166659 L120.277477,214.166659 L120.277477,134.782044 L13.8774766,134.782044 L13.8774766,223.328967 L25.6014266,214.166659 Z M62.3759266,181.890198 L90.5918766,153.827736 L99.9949766,163.18189 L62.3759266,200.605121 L36.5074266,174.871275 L45.9171766,165.517121 L62.3759266,181.890198 Z" id="Shape" opacity="0.03"></path>
            <path d="M1952.80131,515.036631 L1927.40781,534.959708 L1927.40781,429.652016 C1927.40781,426.508241 1929.95979,423.959708 1933.10781,423.959708 L2035.70781,423.959708 C2038.85584,423.959708 2041.40781,426.508241 2041.40781,429.652016 L2041.40781,509.344323 C2041.40781,512.488098 2038.85584,515.036631 2035.70781,515.036631 L1952.80131,515.036631 Z M1948.85691,503.652016 L2030.00781,503.652016 L2030.00781,435.344323 L1938.80781,435.344323 L1938.80781,511.535862 L1948.85691,503.652016 Z M1980.37791,475.879246 L2004.56301,451.732477 L2012.62281,459.7814 L1980.37791,491.982785 L1958.20491,469.839708 L1966.27041,461.790785 L1980.37791,475.879246 Z" id="Shape" opacity="0.049999997" transform="translate(1984.407815, 479.459708) rotate(10.000000) translate(-1984.407815, -479.459708) "></path>
            <path d="M1498.34375,202.687112 L1470.5,224.584548 L1470.5,108.840958 C1470.5,105.385638 1473.29822,102.584548 1476.75,102.584548 L1589.25,102.584548 C1592.70178,102.584548 1595.5,105.385638 1595.5,108.840958 L1595.5,196.430702 C1595.5,199.886022 1592.70178,202.687112 1589.25,202.687112 L1498.34375,202.687112 Z M1494.37556,189.883971 L1583.35681,189.883971 L1583.35681,114.57579 L1483.35681,114.57579 L1483.35681,198.57579 L1494.37556,189.883971 Z M1529.04057,159.108834 L1555.70654,132.712567 L1564.5931,141.511323 L1529.04057,176.712567 L1504.5931,152.506656 L1513.48594,143.7079 L1529.04057,159.108834 Z" id="Shape-Copy-12" opacity="0.049999997" transform="translate(1533.000000, 163.584548) rotate(-7.000000) translate(-1533.000000, -163.584548) "></path>
        </g>
    </g>
</svg>